<?xml version="1.0" encoding="UTF-8" standalone="no"?>
<svg width="13px" height="16px" viewBox="0 0 13 16" version="1.1" xmlns="http://www.w3.org/2000/svg" xmlns:xlink="http://www.w3.org/1999/xlink">
    <!-- Generator: Sketch 3.8.3 (29802) - http://www.bohemiancoding.com/sketch -->
    <title>bar-chart</title>
    <desc>Created with Sketch.</desc>
    <defs></defs>
    <g id="Page-1" stroke="none" stroke-width="1" fill="none" fill-rule="evenodd">
        <g id="Automate" transform="translate(-31.000000, -105.000000)" fill="#FFFFFF">
            <g id="Dashboard" transform="translate(0.000000, 75.000000)">
                <g id="bar-chart" transform="translate(31.000000, 30.000000)">
                    <g id="Capa_1">
                        <g id="Group">
                            <g id="Shape">
                                <path d="M10.127,2.93835294 C10.0567037,2.93835294 9.98592593,2.90823529 9.93825926,2.84941176 L8.463,1.03623529 L6.60785185,2.47811765 C6.50481481,2.55858824 6.35266667,2.54305882 6.26937037,2.44047059 C6.18655556,2.33882353 6.20388889,2.19105882 6.30788889,2.11011765 L8.3512963,0.521411765 C8.4552963,0.441411765 8.60696296,0.456470588 8.68977778,0.559058824 L10.3152593,2.55623529 C10.3980741,2.65788235 10.3807407,2.80564706 10.2767407,2.88658824 C10.2329259,2.92141176 10.179963,2.93835294 10.127,2.93835294 L10.127,2.93835294 Z"></path>
                                <path d="M0.721259259,8.54541176 C0.58837037,8.54541176 0.480518519,8.44 0.480518519,8.31011765 C0.480518519,8.18023529 0.58837037,8.07482353 0.721259259,8.07482353 C4.87885185,8.07482353 8.26077778,4.76941176 8.26077778,0.705882353 C8.26077778,0.576 8.36862963,0.470588235 8.50151852,0.470588235 C8.63440741,0.470588235 8.74225926,0.576 8.74225926,0.705882353 C8.74225926,5.02870588 5.14414815,8.54541176 0.721259259,8.54541176 L0.721259259,8.54541176 Z"></path>
                            </g>
                            <path d="M0.730518519,16 C0.592518519,16 0.480518519,15.8945882 0.480518519,15.7647059 L0.480518519,12.1449412 C0.480518519,12.0150588 0.592518519,11.9096471 0.730518519,11.9096471 C0.868518519,11.9096471 0.980518519,12.0150588 0.980518519,12.1449412 L0.980518519,15.7647059 C0.980518519,15.8945882 0.868518519,16 0.730518519,16 L0.730518519,16 Z" id="Shape"></path>
                            <path d="M4.58333333,16 C4.44533333,16 4.33333333,15.8945882 4.33333333,15.7647059 L4.33333333,9.86117647 C4.33333333,9.73129412 4.44533333,9.62588235 4.58333333,9.62588235 C4.72133333,9.62588235 4.83333333,9.73129412 4.83333333,9.86117647 L4.83333333,15.7647059 C4.83333333,15.8945882 4.72133333,16 4.58333333,16 L4.58333333,16 Z" id="Shape"></path>
                            <path d="M8.43566667,16 C8.29766667,16 8.18566667,15.8945882 8.18566667,15.7647059 L8.18566667,8.22023529 C8.18566667,8.09035294 8.29766667,7.98494118 8.43566667,7.98494118 C8.57366667,7.98494118 8.68566667,8.09035294 8.68566667,8.22023529 L8.68566667,15.7647059 C8.68566667,15.8945882 8.57366667,16 8.43566667,16 L8.43566667,16 Z" id="Shape"></path>
                            <path d="M12.288,16 C12.15,16 12.038,15.8945882 12.038,15.7647059 L12.038,5.80564706 C12.038,5.67576471 12.15,5.57035294 12.288,5.57035294 C12.426,5.57035294 12.538,5.67576471 12.538,5.80564706 L12.538,15.7647059 C12.538,15.8945882 12.426,16 12.288,16 L12.288,16 Z" id="Shape"></path>
                        </g>
                    </g>
                </g>
            </g>
        </g>
    </g>
</svg>