<?xml version="1.0" encoding="UTF-8" standalone="no"?>
<svg width="52px" height="52px" viewBox="0 0 52 52" version="1.1" xmlns="http://www.w3.org/2000/svg" xmlns:xlink="http://www.w3.org/1999/xlink">
    <!-- Generator: Sketch 39.1 (31720) - http://www.bohemiancoding.com/sketch -->
    <title>Group 2@1x</title>
    <desc>Created with Sketch.</desc>
    <defs></defs>
    <g id="Page-1" stroke="none" stroke-width="1" fill="none" fill-rule="evenodd">
        <g id="Alerts-8" transform="translate(-933.000000, -810.000000)">
            <g id="Group-7" transform="translate(320.000000, 570.000000)">
                <g id="Group-2" transform="translate(614.000000, 241.000000)">
                    <path d="M25,50 C38.8071187,50 50,38.8071187 50,25 C50,11.1928813 38.8071187,0 25,0 C11.1928813,0 0,11.1928813 0,25 C0,38.8071187 11.1928813,50 25,50 Z" id="Oval-4" stroke="#000000" fill="#000000" opacity="0.6"></path>
                    <path d="M15.7290938,26.0519063 C15.322875,26.0519063 15,25.7185313 15,25.3123125 C15,24.9060938 15.322875,24.5832188 15.7290938,24.5832188 L24.5720625,24.5832188 L24.5720625,15.7395938 C24.5727187,15.333375 24.9060937,15 25.3123125,15 C25.7185312,15 26.0414063,15.333375 26.0414063,15.7395938 L26.0414063,24.5832188 L34.884375,24.5832188 C35.2905937,24.5832188 35.6239688,24.9060938 35.6239688,25.3123125 C35.6239688,25.7185313 35.2905937,26.0519063 34.884375,26.0519063 L26.0414063,26.0519063 L26.0414063,34.8955312 C26.0414063,35.30175 25.7185312,35.635125 25.3123125,35.635125 C24.9060937,35.635125 24.5727187,35.30175 24.5727187,34.8955312 L24.5727187,26.0519063 L15.7290938,26.0519063 L15.7290938,26.0519063 Z" id="Shape" fill="#FFFFFF"></path>
                </g>
            </g>
        </g>
    </g>
</svg>