<?xml version="1.0" encoding="UTF-8" standalone="no"?>
<svg width="20px" height="17px" viewBox="0 0 20 17" version="1.1" xmlns="http://www.w3.org/2000/svg" xmlns:xlink="http://www.w3.org/1999/xlink">
    <!-- Generator: Sketch 3.8.3 (29802) - http://www.bohemiancoding.com/sketch -->
    <title>ic_automate</title>
    <desc>Created with Sketch.</desc>
    <defs></defs>
    <g id="Page-1" stroke="none" stroke-width="1" fill="none" fill-rule="evenodd">
        <g id="Automate" transform="translate(-28.000000, -480.000000)" fill="#FFFFFF">
            <g transform="translate(0.000000, 450.000000)" id="Group-3">
                <g transform="translate(28.000000, 30.000000)">
                    <g id="ic_automate">
                        <g id="Capa_1">
                            <g id="Group">
                                <path d="M15.3467778,14.0742886 C13.9001111,15.5584228 11.9787778,16.3760201 9.93411111,16.3760201 C5.71688889,16.3760201 2.28522222,12.8542819 2.28122222,8.52521477 L3.84188889,10.1298322 C3.94533333,10.2353691 4.11177778,10.2353691 4.21511111,10.1298322 C4.31722222,10.0236107 4.31722222,9.85212752 4.21511111,9.7465906 L2.14611111,7.62113423 L0.0775555556,9.7465906 C-0.0258888889,9.85212752 -0.0258888889,10.0237248 0.0775555556,10.1298322 C0.128555556,10.1828859 0.196222222,10.2087852 0.263222222,10.2087852 C0.331555556,10.2087852 0.399111111,10.1822013 0.449555556,10.1298322 L1.76355556,8.77987248 C1.90077778,13.2901208 5.50677778,16.9179664 9.93155556,16.9179664 C12.1174444,16.9179664 14.172,16.0438926 15.7181111,14.4569597 C15.8208889,14.3514228 15.8208889,14.1798255 15.7181111,14.0744027 C15.618,13.9680671 15.4502222,13.9680671 15.3467778,14.0742886 L15.3467778,14.0742886 Z" id="Shape"></path>
                                <path d="M19.8133333,6.87233557 C19.7112222,6.76679866 19.5441111,6.76679866 19.4407778,6.87233557 L18.128,8.22161074 C17.9894444,3.71136242 14.3834444,0.0842013423 9.95933333,0.0842013423 C7.77211111,0.0842013423 5.71822222,0.958275168 4.17211111,2.54520805 C4.06866667,2.65074497 4.06866667,2.82234228 4.17211111,2.9277651 C4.27422222,3.03398658 4.442,3.03398658 4.54466667,2.9277651 C5.99066667,1.44363087 7.91266667,0.626033557 9.95733333,0.626033557 C14.1738889,0.626033557 17.6062222,4.14708725 17.6115556,8.47683893 L16.0495556,6.87222148 C15.9467778,6.76668456 15.7796667,6.76668456 15.6763333,6.87222148 C15.5742222,6.97844295 15.5742222,7.14992617 15.6763333,7.25546309 L17.7455556,9.3802349 L19.8141111,7.25546309 C19.9167778,7.15004027 19.9167778,6.97844295 19.8133333,6.87233557 L19.8133333,6.87233557 Z" id="Shape"></path>
                            </g>
                        </g>
                    </g>
                </g>
            </g>
        </g>
    </g>
</svg>